Style,Standard
Append Mode,1
Fill Mode,1
Capacity,100000
Count,421
Base Time Seconds,1653327997
Base Time Fractional,.916045280
Base Time,05/23/2022 17:46:37.916045280
Index,Reading,Unit,Range Digits,Disp Digits,Math,Start Group,Limit1 High,Limit1 Low,Limit2 High,Limit2 Low,Terminal,Questionable,Origin,Value,Unit,Digits,Output,Sense,Source Limit,Overtemp,Date,Time,Fractional Seconds
1,8.175085053352e-10,Amp DC,.00000001,5.5,F,F,F,F,F,F,Front,F,Main,-0.0022919997573,Volt DC,100,T,2W,F,F,05/23/2022,17:46:37,.916045280
2,5.995850926865e-09,Amp DC,.00000001,5.5,F,F,F,F,F,F,Front,F,Main,0.4974175691605,Volt DC,100,T,2W,F,F,05/23/2022,17:46:38,.310926000
3,5.644328116006e-09,Amp DC,.00000001,5.5,F,F,F,F,F,F,Front,F,Main,0.9976307749748,Volt DC,100,T,2W,F,F,05/23/2022,17:46:38,.705767800
4,5.598040697663e-09,Amp DC,.00000001,5.5,F,F,F,F,F,F,Front,F,Main,1.4975240230560,Volt DC,100,T,2W,F,F,05/23/2022,17:46:39,.100627700
5,5.966036109584e-09,Amp DC,.00000001,5.5,F,F,F,F,F,F,Front,F,Main,1.9974162578583,Volt DC,100,T,2W,F,F,05/23/2022,17:46:39,.495448680
6,5.940857583653e-09,Amp DC,.00000001,5.5,F,F,F,F,F,F,Front,F,Main,2.4978473186493,Volt DC,100,T,2W,F,F,05/23/2022,17:46:39,.890294280
7,5.518175694164e-09,Amp DC,.00000001,5.5,F,F,F,F,F,F,Front,F,Main,2.9976947307587,Volt DC,100,T,2W,F,F,05/23/2022,17:46:40,.285151900
8,5.599213093177e-09,Amp DC,.00000001,5.5,F,F,F,F,F,F,Front,F,Main,3.4975297451019,Volt DC,100,T,2W,F,F,05/23/2022,17:46:40,.680005560
9,5.95665783365e-09,Amp DC,.00000001,5.5,F,F,F,F,F,F,Front,F,Main,3.9973990917206,Volt DC,100,T,2W,F,F,05/23/2022,17:46:41,.074855060
10,5.858646900947e-09,Amp DC,.00000001,5.5,F,F,F,F,F,F,Front,F,Main,4.4976134300232,Volt DC,100,T,2W,F,F,05/23/2022,17:46:41,.469692180
11,5.478388853675e-09,Amp DC,.00000001,5.5,F,F,F,F,F,F,Front,F,Main,4.9978132247925,Volt DC,100,T,2W,F,F,05/23/2022,17:46:41,.864532820
12,5.636877631332e-09,Amp DC,.00000001,5.5,F,F,F,F,F,F,Front,F,Main,5.4979133605957,Volt DC,100,T,2W,F,F,05/23/2022,17:46:42,.259372120
13,5.963203708603e-09,Amp DC,.00000001,5.5,F,F,F,F,F,F,Front,F,Main,5.9982423782349,Volt DC,100,T,2W,F,F,05/23/2022,17:46:42,.654217140
14,5.767345268026e-09,Amp DC,.00000001,5.5,F,F,F,F,F,F,Front,F,Main,6.4979605674744,Volt DC,100,T,2W,F,F,05/23/2022,17:46:43,.049076160
15,5.437707617517e-09,Amp DC,.00000001,5.5,F,F,F,F,F,F,Front,F,Main,6.9981088638306,Volt DC,100,T,2W,F,F,05/23/2022,17:46:43,.443929160
16,5.750499632029e-09,Amp DC,.00000001,5.5,F,F,F,F,F,F,Front,F,Main,7.4980111122131,Volt DC,100,T,2W,F,F,05/23/2022,17:46:43,.838784960
17,3.894453648456e-09,Amp DC,.00000001,5.5,F,F,F,F,F,F,Front,F,Main,7.9978241920471,Volt DC,100,T,2W,F,F,05/23/2022,17:46:44,.233639000
18,5.758102439302e-09,Amp DC,.00000001,5.5,F,F,F,F,F,F,Front,F,Main,8.4980154037476,Volt DC,100,T,2W,F,F,05/23/2022,17:46:44,.628483400
19,5.416728399155e-09,Amp DC,.00000001,5.5,F,F,F,F,F,F,Front,F,Main,8.9977779388428,Volt DC,100,T,2W,F,F,05/23/2022,17:46:45,.023338320
20,7.044202998685e-09,Amp DC,.00000001,5.5,F,F,F,F,F,F,Front,F,Main,9.4980783462524,Volt DC,100,T,2W,F,F,05/23/2022,17:46:45,.418195500
21,5.277724923758e-09,Amp DC,.00000001,5.5,F,F,F,F,F,F,Front,F,Main,9.9979219436646,Volt DC,100,T,2W,F,F,05/23/2022,17:46:45,.813040740
22,5.717641915481e-09,Amp DC,.00000001,5.5,F,F,F,F,F,F,Front,F,Main,10.4977550506592,Volt DC,100,T,2W,F,F,05/23/2022,17:46:46,.207885240
23,5.32998711833e-09,Amp DC,.00000001,5.5,F,F,F,F,F,F,Front,F,Main,10.9979324340820,Volt DC,100,T,2W,F,F,05/23/2022,17:46:46,.602733860
24,5.555142124081e-09,Amp DC,.00000001,5.5,F,F,F,F,F,F,Front,F,Main,11.4977827072144,Volt DC,100,T,2W,F,F,05/23/2022,17:46:46,.997585200
25,5.804544844779e-09,Amp DC,.00000001,5.5,F,F,F,F,F,F,Front,F,Main,11.9982566833496,Volt DC,100,T,2W,F,F,05/23/2022,17:46:47,.392431040
26,5.48802470135e-09,Amp DC,.00000001,5.5,F,F,F,F,F,F,Front,F,Main,12.4982566833496,Volt DC,100,T,2W,F,F,05/23/2022,17:46:47,.787284340
27,5.443074879707e-09,Amp DC,.00000001,5.5,F,F,F,F,F,F,Front,F,Main,12.9984979629517,Volt DC,100,T,2W,F,F,05/23/2022,17:46:48,.182142340
28,5.841529926442e-09,Amp DC,.00000001,5.5,F,F,F,F,F,F,Front,F,Main,13.4984025955200,Volt DC,100,T,2W,F,F,05/23/2022,17:46:48,.576986440
29,5.735510733018e-09,Amp DC,.00000001,5.5,F,F,F,F,F,F,Front,F,Main,13.9983215332031,Volt DC,100,T,2W,F,F,05/23/2022,17:46:48,.971824880
30,5.680326431445e-09,Amp DC,.00000001,5.5,F,F,F,F,F,F,Front,F,Main,14.4985132217407,Volt DC,100,T,2W,F,F,05/23/2022,17:46:49,.366673960
31,5.29960386686e-09,Amp DC,.00000001,5.5,F,F,F,F,F,F,Front,F,Main,14.9981813430786,Volt DC,100,T,2W,F,F,05/23/2022,17:46:49,.761518680
32,5.729028362822e-09,Amp DC,.00000001,5.5,F,F,F,F,F,F,Front,F,Main,15.4983844757080,Volt DC,100,T,2W,F,F,05/23/2022,17:46:50,.156372860
33,5.75719827367e-09,Amp DC,.00000001,5.5,F,F,F,F,F,F,Front,F,Main,15.9984703063965,Volt DC,100,T,2W,F,F,05/23/2022,17:46:50,.551222120
34,5.456401996895e-09,Amp DC,.00000001,5.5,F,F,F,F,F,F,Front,F,Main,16.4983634948730,Volt DC,100,T,2W,F,F,05/23/2022,17:46:50,.946095440
35,5.574455119728e-09,Amp DC,.00000001,5.5,F,F,F,F,F,F,Front,F,Main,16.9984283447266,Volt DC,100,T,2W,F,F,05/23/2022,17:46:51,.340924940
36,5.917200951444e-09,Amp DC,.00000001,5.5,F,F,F,F,F,F,Front,F,Main,17.4982032775879,Volt DC,100,T,2W,F,F,05/23/2022,17:46:51,.735789260
37,5.772874178689e-09,Amp DC,.00000001,5.5,F,F,F,F,F,F,Front,F,Main,17.9982872009277,Volt DC,100,T,2W,F,F,05/23/2022,17:46:52,.130647860
38,5.390980994946e-09,Amp DC,.00000001,5.5,F,F,F,F,F,F,Front,F,Main,18.4982833862305,Volt DC,100,T,2W,F,F,05/23/2022,17:46:52,.525503120
39,5.753484355608e-09,Amp DC,.00000001,5.5,F,F,F,F,F,F,Front,F,Main,18.9986457824707,Volt DC,100,T,2W,F,F,05/23/2022,17:46:52,.920346680
40,5.950605785898e-09,Amp DC,.00000001,5.5,F,F,F,F,F,F,Front,F,Main,19.4988441467285,Volt DC,100,T,2W,F,F,05/23/2022,17:46:53,.315199720
41,5.653013168683e-09,Amp DC,.00000001,5.5,F,F,F,F,F,F,Front,F,Main,19.9987430572510,Volt DC,100,T,2W,F,F,05/23/2022,17:46:53,.710045860
42,5.425234927969e-09,Amp DC,.00000001,5.5,F,F,F,F,F,F,Front,F,Main,20.4987850189209,Volt DC,100,T,2W,F,F,05/23/2022,17:46:54,.104905960
43,5.744282383091e-09,Amp DC,.00000001,5.5,F,F,F,F,F,F,Front,F,Main,20.9986515045166,Volt DC,100,T,2W,F,F,05/23/2022,17:46:54,.499745080
44,5.942761394095e-09,Amp DC,.00000001,5.5,F,F,F,F,F,F,Front,F,Main,21.4986133575439,Volt DC,100,T,2W,F,F,05/23/2022,17:46:54,.894595380
45,5.5967550594e-09,Amp DC,.00000001,5.5,F,F,F,F,F,F,Front,F,Main,21.9987773895264,Volt DC,100,T,2W,F,F,05/23/2022,17:46:55,.289449540
46,5.452434947983e-09,Amp DC,.00000001,5.5,F,F,F,F,F,F,Front,F,Main,22.4986381530762,Volt DC,100,T,2W,F,F,05/23/2022,17:46:55,.684291180
47,5.809481340435e-09,Amp DC,.00000001,5.5,F,F,F,F,F,F,Front,F,Main,22.9987010955811,Volt DC,100,T,2W,F,F,05/23/2022,17:46:56,.079159440
48,5.903783240058e-09,Amp DC,.00000001,5.5,F,F,F,F,F,F,Front,F,Main,23.4985580444336,Volt DC,100,T,2W,F,F,05/23/2022,17:46:56,.474006760
49,5.532450497725e-09,Amp DC,.00000001,5.5,F,F,F,F,F,F,Front,F,Main,23.9985218048096,Volt DC,100,T,2W,F,F,05/23/2022,17:46:56,.868866400
50,5.51540679794e-09,Amp DC,.00000001,5.5,F,F,F,F,F,F,Front,F,Main,24.4987449645996,Volt DC,100,T,2W,F,F,05/23/2022,17:46:57,.263692700
51,5.873625141817e-09,Amp DC,.00000001,5.5,F,F,F,F,F,F,Front,F,Main,24.9984245300293,Volt DC,100,T,2W,F,F,05/23/2022,17:46:57,.658539000
52,5.851770623622e-09,Amp DC,.00000001,5.5,F,F,F,F,F,F,Front,F,Main,25.4982395172119,Volt DC,100,T,2W,F,F,05/23/2022,17:46:58,.053390280
53,5.458503427036e-09,Amp DC,.00000001,5.5,F,F,F,F,F,F,Front,F,Main,25.9978981018066,Volt DC,100,T,2W,F,F,05/23/2022,17:46:58,.448234720
54,5.577090789188e-09,Amp DC,.00000001,5.5,F,F,F,F,F,F,Front,F,Main,26.4981594085693,Volt DC,100,T,2W,F,F,05/23/2022,17:46:58,.843095800
55,5.914351230984e-09,Amp DC,.00000001,5.5,F,F,F,F,F,F,Front,F,Main,26.9981117248535,Volt DC,100,T,2W,F,F,05/23/2022,17:46:59,.237942960
56,5.771758626594e-09,Amp DC,.00000001,5.5,F,F,F,F,F,F,Front,F,Main,27.4980335235596,Volt DC,100,T,2W,F,F,05/23/2022,17:46:59,.632793760
57,5.396367797061e-09,Amp DC,.00000001,5.5,F,F,F,F,F,F,Front,F,Main,27.9982814788818,Volt DC,100,T,2W,F,F,05/23/2022,17:47:00,.027631560
58,5.63820501398e-09,Amp DC,.00000001,5.5,F,F,F,F,F,F,Front,F,Main,28.4980278015137,Volt DC,100,T,2W,F,F,05/23/2022,17:47:00,.422476020
59,5.951010795258e-09,Amp DC,.00000001,5.5,F,F,F,F,F,F,Front,F,Main,28.9980583190918,Volt DC,100,T,2W,F,F,05/23/2022,17:47:00,.817327620
60,5.695154570162e-09,Amp DC,.00000001,5.5,F,F,F,F,F,F,Front,F,Main,29.4980010986328,Volt DC,100,T,2W,F,F,05/23/2022,17:47:01,.212159560
61,5.422248872122e-09,Amp DC,.00000001,5.5,F,F,F,F,F,F,Front,F,Main,29.9979839324951,Volt DC,100,T,2W,F,F,05/23/2022,17:47:01,.607013560
62,5.746950026975e-09,Amp DC,.00000001,5.5,F,F,F,F,F,F,Front,F,Main,30.4981632232666,Volt DC,100,T,2W,F,F,05/23/2022,17:47:02,.001842600
63,5.943739722625e-09,Amp DC,.00000001,5.5,F,F,F,F,F,F,Front,F,Main,30.9978866577148,Volt DC,100,T,2W,F,F,05/23/2022,17:47:02,.396677720
64,5.604954278482e-09,Amp DC,.00000001,5.5,F,F,F,F,F,F,Front,F,Main,31.4979457855225,Volt DC,100,T,2W,F,F,05/23/2022,17:47:02,.791550280
65,5.454841023322e-09,Amp DC,.00000001,5.5,F,F,F,F,F,F,Front,F,Main,31.9979248046875,Volt DC,100,T,2W,F,F,05/23/2022,17:47:03,.186405900
66,5.816052528473e-09,Amp DC,.00000001,5.5,F,F,F,F,F,F,Front,F,Main,32.4985351562500,Volt DC,100,T,2W,F,F,05/23/2022,17:47:03,.581256460
67,5.914357004144e-09,Amp DC,.00000001,5.5,F,F,F,F,F,F,Front,F,Main,32.9986648559570,Volt DC,100,T,2W,F,F,05/23/2022,17:47:03,.976101620
68,5.53773649159e-09,Amp DC,.00000001,5.5,F,F,F,F,F,F,Front,F,Main,33.4984893798828,Volt DC,100,T,2W,F,F,05/23/2022,17:47:04,.370941060
69,5.511422873639e-09,Amp DC,.00000001,5.5,F,F,F,F,F,F,Front,F,Main,33.9983253479004,Volt DC,100,T,2W,F,F,05/23/2022,17:47:04,.765799460
70,5.87623683046e-09,Amp DC,.00000001,5.5,F,F,F,F,F,F,Front,F,Main,34.4984016418457,Volt DC,100,T,2W,F,F,05/23/2022,17:47:05,.160651800
71,5.851126694267e-09,Amp DC,.00000001,5.5,F,F,F,F,F,F,Front,F,Main,34.9983825683594,Volt DC,100,T,2W,F,F,05/23/2022,17:47:05,.555506820
72,5.468513197826e-09,Amp DC,.00000001,5.5,F,F,F,F,F,F,Front,F,Main,35.4983291625977,Volt DC,100,T,2W,F,F,05/23/2022,17:47:05,.950350160
73,5.582060147447e-09,Amp DC,.00000001,5.5,F,F,F,F,F,F,Front,F,Main,35.9981231689453,Volt DC,100,T,2W,F,F,05/23/2022,17:47:06,.345186620
74,5.92252558107e-09,Amp DC,.00000001,5.5,F,F,F,F,F,F,Front,F,Main,36.4984397888184,Volt DC,100,T,2W,F,F,05/23/2022,17:47:06,.740041740
75,5.785106615974e-09,Amp DC,.00000001,5.5,F,F,F,F,F,F,Front,F,Main,36.9981155395508,Volt DC,100,T,2W,F,F,05/23/2022,17:47:07,.134892140
76,5.438518968504e-09,Amp DC,.00000001,5.5,F,F,F,F,F,F,Front,F,Main,37.4980201721191,Volt DC,100,T,2W,F,F,05/23/2022,17:47:07,.529759960
77,5.636014765997e-09,Amp DC,.00000001,5.5,F,F,F,F,F,F,Front,F,Main,37.9980850219727,Volt DC,100,T,2W,F,F,05/23/2022,17:47:07,.924596220
78,5.943426639732e-09,Amp DC,.00000001,5.5,F,F,F,F,F,F,Front,F,Main,38.4979248046875,Volt DC,100,T,2W,F,F,05/23/2022,17:47:08,.319439800
79,5.714318795924e-09,Amp DC,.00000001,5.5,F,F,F,F,F,F,Front,F,Main,38.9978561401367,Volt DC,100,T,2W,F,F,05/23/2022,17:47:08,.714264420
80,5.420468074391e-09,Amp DC,.00000001,5.5,F,F,F,F,F,F,Front,F,Main,39.4976959228516,Volt DC,100,T,2W,F,F,05/23/2022,17:47:09,.109128620
81,5.7243085827e-09,Amp DC,.00000001,5.5,F,F,F,F,F,F,Front,F,Main,39.9977226257324,Volt DC,100,T,2W,F,F,05/23/2022,17:47:09,.503980960
82,5.955818949133e-09,Amp DC,.00000001,5.5,F,F,F,F,F,F,Front,F,Main,40.4979858398438,Volt DC,100,T,2W,F,F,05/23/2022,17:47:09,.898834840
83,5.632288857527e-09,Amp DC,.00000001,5.5,F,F,F,F,F,F,Front,F,Main,40.9976997375488,Volt DC,100,T,2W,F,F,05/23/2022,17:47:10,.293697320
84,5.441852746202e-09,Amp DC,.00000001,5.5,F,F,F,F,F,F,Front,F,Main,41.4980659484863,Volt DC,100,T,2W,F,F,05/23/2022,17:47:10,.688541380
85,5.780592893245e-09,Amp DC,.00000001,5.5,F,F,F,F,F,F,Front,F,Main,41.9977035522461,Volt DC,100,T,2W,F,F,05/23/2022,17:47:11,.083403520
86,5.940102187907e-09,Amp DC,.00000001,5.5,F,F,F,F,F,F,Front,F,Main,42.4977874755859,Volt DC,100,T,2W,F,F,05/23/2022,17:47:11,.478222900
87,5.569012806461e-09,Amp DC,.00000001,5.5,F,F,F,F,F,F,Front,F,Main,42.9976806640625,Volt DC,100,T,2W,F,F,05/23/2022,17:47:11,.873065700
88,5.480412124115e-09,Amp DC,.00000001,5.5,F,F,F,F,F,F,Front,F,Main,43.4979591369629,Volt DC,100,T,2W,F,F,05/23/2022,17:47:12,.267932420
89,5.84796655545e-09,Amp DC,.00000001,5.5,F,F,F,F,F,F,Front,F,Main,43.9978790283203,Volt DC,100,T,2W,F,F,05/23/2022,17:47:12,.662768260
90,5.881171993849e-09,Amp DC,.00000001,5.5,F,F,F,F,F,F,Front,F,Main,44.4977264404297,Volt DC,100,T,2W,F,F,05/23/2022,17:47:13,.057613120
91,5.506434419544e-09,Amp DC,.00000001,5.5,F,F,F,F,F,F,Front,F,Main,44.9979248046875,Volt DC,100,T,2W,F,F,05/23/2022,17:47:13,.452448920
92,5.543766334881e-09,Amp DC,.00000001,5.5,F,F,F,F,F,F,Front,F,Main,45.4973793029785,Volt DC,100,T,2W,F,F,05/23/2022,17:47:13,.847298240
93,5.916908740744e-09,Amp DC,.00000001,5.5,F,F,F,F,F,F,Front,F,Main,45.9979400634766,Volt DC,100,T,2W,F,F,05/23/2022,17:47:14,.242148080
94,5.824120297149e-09,Amp DC,.00000001,5.5,F,F,F,F,F,F,Front,F,Main,46.4982719421387,Volt DC,100,T,2W,F,F,05/23/2022,17:47:14,.636989680
95,5.449185991324e-09,Amp DC,.00000001,5.5,F,F,F,F,F,F,Front,F,Main,46.9979057312012,Volt DC,100,T,2W,F,F,05/23/2022,17:47:15,.031847560
96,5.629957389175e-09,Amp DC,.00000001,5.5,F,F,F,F,F,F,Front,F,Main,47.4980735778809,Volt DC,100,T,2W,F,F,05/23/2022,17:47:15,.426670700
97,5.94123550357e-09,Amp DC,.00000001,5.5,F,F,F,F,F,F,Front,F,Main,47.9976997375488,Volt DC,100,T,2W,F,F,05/23/2022,17:47:15,.821528480
98,5.736291441849e-09,Amp DC,.00000001,5.5,F,F,F,F,F,F,Front,F,Main,48.4981803894043,Volt DC,100,T,2W,F,F,05/23/2022,17:47:16,.216381540
99,5.429923177758e-09,Amp DC,.00000001,5.5,F,F,F,F,F,F,Front,F,Main,48.9979248046875,Volt DC,100,T,2W,F,F,05/23/2022,17:47:16,.611214320
100,5.721551676885e-09,Amp DC,.00000001,5.5,F,F,F,F,F,F,Front,F,Main,49.4978752136230,Volt DC,100,T,2W,F,F,05/23/2022,17:47:17,.006069100
101,5.958336046774e-09,Amp DC,.00000001,5.5,F,F,F,F,F,F,Front,F,Main,49.9978179931641,Volt DC,100,T,2W,F,F,05/23/2022,17:47:17,.400896080
102,5.633115751635e-09,Amp DC,.00000001,5.5,F,F,F,F,F,F,Front,F,Main,50.4979820251465,Volt DC,100,T,2W,F,F,05/23/2022,17:47:17,.795764440
103,5.442561068492e-09,Amp DC,.00000001,5.5,F,F,F,F,F,F,Front,F,Main,50.9975051879883,Volt DC,100,T,2W,F,F,05/23/2022,17:47:18,.190598040
104,5.801942926098e-09,Amp DC,.00000001,5.5,F,F,F,F,F,F,Front,F,Main,51.4975128173828,Volt DC,100,T,2W,F,F,05/23/2022,17:47:18,.585446980
105,5.931656055225e-09,Amp DC,.00000001,5.5,F,F,F,F,F,F,Front,F,Main,51.9976310729980,Volt DC,100,T,2W,F,F,05/23/2022,17:47:18,.980303680
106,5.559690485768e-09,Amp DC,.00000001,5.5,F,F,F,F,F,F,Front,F,Main,52.4975509643555,Volt DC,100,T,2W,F,F,05/23/2022,17:47:19,.375139440
107,5.505927713756e-09,Amp DC,.00000001,5.5,F,F,F,F,F,F,Front,F,Main,52.9972000122070,Volt DC,100,T,2W,F,F,05/23/2022,17:47:19,.769995240
108,5.875940178868e-09,Amp DC,.00000001,5.5,F,F,F,F,F,F,Front,F,Main,53.4972114562988,Volt DC,100,T,2W,F,F,05/23/2022,17:47:20,.164837320
109,5.864214003282e-09,Amp DC,.00000001,5.5,F,F,F,F,F,F,Front,F,Main,53.9971237182617,Volt DC,100,T,2W,F,F,05/23/2022,17:47:20,.559688440
110,5.484672271905e-09,Amp DC,.00000001,5.5,F,F,F,F,F,F,Front,F,Main,54.4973144531250,Volt DC,100,T,2W,F,F,05/23/2022,17:47:20,.954559520
111,5.568610017548e-09,Amp DC,.00000001,5.5,F,F,F,F,F,F,Front,F,Main,54.9972152709961,Volt DC,100,T,2W,F,F,05/23/2022,17:47:21,.349405040
112,5.921524159902e-09,Amp DC,.00000001,5.5,F,F,F,F,F,F,Front,F,Main,55.4971199035645,Volt DC,100,T,2W,F,F,05/23/2022,17:47:21,.744270240
113,5.808401315477e-09,Amp DC,.00000001,5.5,F,F,F,F,F,F,Front,F,Main,55.9971923828125,Volt DC,100,T,2W,F,F,05/23/2022,17:47:22,.139100300
114,5.452760465374e-09,Amp DC,.00000001,5.5,F,F,F,F,F,F,Front,F,Main,56.4970817565918,Volt DC,100,T,2W,F,F,05/23/2022,17:47:22,.533952020
115,5.643411071787e-09,Amp DC,.00000001,5.5,F,F,F,F,F,F,Front,F,Main,56.9971008300781,Volt DC,100,T,2W,F,F,05/23/2022,17:47:22,.928780860
116,5.955026693982e-09,Amp DC,.00000001,5.5,F,F,F,F,F,F,Front,F,Main,57.4973640441895,Volt DC,100,T,2W,F,F,05/23/2022,17:47:23,.323613420
117,5.72061598092e-09,Amp DC,.00000001,5.5,F,F,F,F,F,F,Front,F,Main,57.9968452453613,Volt DC,100,T,2W,F,F,05/23/2022,17:47:23,.718435740
118,5.446974871148e-09,Amp DC,.00000001,5.5,F,F,F,F,F,F,Front,F,Main,58.4971694946289,Volt DC,100,T,2W,F,F,05/23/2022,17:47:24,.113260720
119,5.732375463197e-09,Amp DC,.00000001,5.5,F,F,F,F,F,F,Front,F,Main,58.9968948364258,Volt DC,100,T,2W,F,F,05/23/2022,17:47:24,.508125140
120,5.96669602615e-09,Amp DC,.00000001,5.5,F,F,F,F,F,F,Front,F,Main,59.4973297119141,Volt DC,100,T,2W,F,F,05/23/2022,17:47:24,.902993440
121,5.638032263278e-09,Amp DC,.00000001,5.5,F,F,F,F,F,F,Front,F,Main,59.9972572326660,Volt DC,100,T,2W,F,F,05/23/2022,17:47:25,.297860400
122,5.451208373586e-09,Amp DC,.00000001,5.5,F,F,F,F,F,F,Front,F,Main,60.4975051879883,Volt DC,100,T,2W,F,F,05/23/2022,17:47:25,.692716720
123,5.79560222036e-09,Amp DC,.00000001,5.5,F,F,F,F,F,F,Front,F,Main,60.9974937438965,Volt DC,100,T,2W,F,F,05/23/2022,17:47:26,.087569840
124,5.943363134975e-09,Amp DC,.00000001,5.5,F,F,F,F,F,F,Front,F,Main,61.4971885681152,Volt DC,100,T,2W,F,F,05/23/2022,17:47:26,.482435060
125,5.62809399085e-09,Amp DC,.00000001,5.5,F,F,F,F,F,F,Front,F,Main,62.0005302429199,Volt DC,100,T,2W,F,F,05/23/2022,17:47:26,.877293580
126,5.484045217941e-09,Amp DC,.00000001,5.5,F,F,F,F,F,F,Front,F,Main,62.5004158020020,Volt DC,100,T,2W,F,F,05/23/2022,17:47:27,.272136560
127,5.857741403048e-09,Amp DC,.00000001,5.5,F,F,F,F,F,F,Front,F,Main,63.0006217956543,Volt DC,100,T,2W,F,F,05/23/2022,17:47:27,.667021400
128,5.901040989187e-09,Amp DC,.00000001,5.5,F,F,F,F,F,F,Front,F,Main,63.5003738403320,Volt DC,100,T,2W,F,F,05/23/2022,17:47:28,.061893340
129,5.520276680215e-09,Amp DC,.00000001,5.5,F,F,F,F,F,F,Front,F,Main,64.0004119873047,Volt DC,100,T,2W,F,F,05/23/2022,17:47:28,.456772320
130,5.543670855701e-09,Amp DC,.00000001,5.5,F,F,F,F,F,F,Front,F,Main,64.5004196166992,Volt DC,100,T,2W,F,F,05/23/2022,17:47:28,.851619560
131,5.908499467466e-09,Amp DC,.00000001,5.5,F,F,F,F,F,F,Front,F,Main,65.0003585815430,Volt DC,100,T,2W,F,F,05/23/2022,17:47:29,.246480080
132,5.859294827104e-09,Amp DC,.00000001,5.5,F,F,F,F,F,F,Front,F,Main,65.5004425048828,Volt DC,100,T,2W,F,F,05/23/2022,17:47:29,.641361040
133,5.482030829285e-09,Amp DC,.00000001,5.5,F,F,F,F,F,F,Front,F,Main,66.0002593994141,Volt DC,100,T,2W,F,F,05/23/2022,17:47:30,.036217760
134,5.589009255402e-09,Amp DC,.00000001,5.5,F,F,F,F,F,F,Front,F,Main,66.4998321533203,Volt DC,100,T,2W,F,F,05/23/2022,17:47:30,.431101040
135,5.942428327188e-09,Amp DC,.00000001,5.5,F,F,F,F,F,F,Front,F,Main,67.0002212524414,Volt DC,100,T,2W,F,F,05/23/2022,17:47:30,.825979560
136,5.815491643801e-09,Amp DC,.00000001,5.5,F,F,F,F,F,F,Front,F,Main,67.4997711181641,Volt DC,100,T,2W,F,F,05/23/2022,17:47:31,.220849880
137,5.468685948529e-09,Amp DC,.00000001,5.5,F,F,F,F,F,F,Front,F,Main,67.9999313354492,Volt DC,100,T,2W,F,F,05/23/2022,17:47:31,.615701480
138,5.632811550527e-09,Amp DC,.00000001,5.5,F,F,F,F,F,F,Front,F,Main,68.4999160766602,Volt DC,100,T,2W,F,F,05/23/2022,17:47:32,.010550480
139,5.95310600815e-09,Amp DC,.00000001,5.5,F,F,F,F,F,F,Front,F,Main,68.9999465942383,Volt DC,100,T,2W,F,F,05/23/2022,17:47:32,.405414320
140,5.769131394828e-09,Amp DC,.00000001,5.5,F,F,F,F,F,F,Front,F,Main,69.4998016357422,Volt DC,100,T,2W,F,F,05/23/2022,17:47:32,.800285940
141,5.443105077774e-09,Amp DC,.00000001,5.5,F,F,F,F,F,F,Front,F,Main,69.9999160766602,Volt DC,100,T,2W,F,F,05/23/2022,17:47:33,.195165400
142,5.691774607186e-09,Amp DC,.00000001,5.5,F,F,F,F,F,F,Front,F,Main,70.4995346069336,Volt DC,100,T,2W,F,F,05/23/2022,17:47:33,.590027500
143,5.97490146248e-09,Amp DC,.00000001,5.5,F,F,F,F,F,F,Front,F,Main,70.9998092651367,Volt DC,100,T,2W,F,F,05/23/2022,17:47:33,.984922120
144,5.698632676854e-09,Amp DC,.00000001,5.5,F,F,F,F,F,F,Front,F,Main,71.4995422363281,Volt DC,100,T,2W,F,F,05/23/2022,17:47:34,.379788220
145,5.450628837167e-09,Amp DC,.00000001,5.5,F,F,F,F,F,F,Front,F,Main,71.9997100830078,Volt DC,100,T,2W,F,F,05/23/2022,17:47:34,.774654740
146,5.766402022545e-09,Amp DC,.00000001,5.5,F,F,F,F,F,F,Front,F,Main,72.4995880126953,Volt DC,100,T,2W,F,F,05/23/2022,17:47:35,.169528340
147,5.977451422723e-09,Amp DC,.00000001,5.5,F,F,F,F,F,F,Front,F,Main,73.0001983642578,Volt DC,100,T,2W,F,F,05/23/2022,17:47:35,.564388440
148,5.634811728328e-09,Amp DC,.00000001,5.5,F,F,F,F,F,F,Front,F,Main,73.4999618530273,Volt DC,100,T,2W,F,F,05/23/2022,17:47:35,.959260760
149,5.470768726923e-09,Amp DC,.00000001,5.5,F,F,F,F,F,F,Front,F,Main,74.0001144409180,Volt DC,100,T,2W,F,F,05/23/2022,17:47:36,.354143460
150,5.812680559103e-09,Amp DC,.00000001,5.5,F,F,F,F,F,F,Front,F,Main,74.4999847412109,Volt DC,100,T,2W,F,F,05/23/2022,17:47:36,.749008200
151,5.955020920823e-09,Amp DC,.00000001,5.5,F,F,F,F,F,F,Front,F,Main,74.9998168945313,Volt DC,100,T,2W,F,F,05/23/2022,17:47:37,.143884500
152,5.594321006441e-09,Amp DC,.00000001,5.5,F,F,F,F,F,F,Front,F,Main,75.4999465942383,Volt DC,100,T,2W,F,F,05/23/2022,17:47:37,.538738160
153,5.50301404445e-09,Amp DC,.00000001,5.5,F,F,F,F,F,F,Front,F,Main,75.9997329711914,Volt DC,100,T,2W,F,F,05/23/2022,17:47:37,.933604580
154,5.862418550606e-09,Amp DC,.00000001,5.5,F,F,F,F,F,F,Front,F,Main,76.4996871948242,Volt DC,100,T,2W,F,F,05/23/2022,17:47:38,.328456980
155,5.92228399654e-09,Amp DC,.00000001,5.5,F,F,F,F,F,F,Front,F,Main,77.0003890991211,Volt DC,100,T,2W,F,F,05/23/2022,17:47:38,.723317660
156,5.538902669855e-09,Amp DC,.00000001,5.5,F,F,F,F,F,F,Front,F,Main,77.4994735717773,Volt DC,100,T,2W,F,F,05/23/2022,17:47:39,.118185400
157,5.56340440383e-09,Amp DC,.00000001,5.5,F,F,F,F,F,F,Front,F,Main,77.9997253417969,Volt DC,100,T,2W,F,F,05/23/2022,17:47:39,.513061560
158,5.915218981301e-09,Amp DC,.00000001,5.5,F,F,F,F,F,F,Front,F,Main,78.4992980957031,Volt DC,100,T,2W,F,F,05/23/2022,17:47:39,.907927800
159,5.870665287233e-09,Amp DC,.00000001,5.5,F,F,F,F,F,F,Front,F,Main,78.9996490478516,Volt DC,100,T,2W,F,F,05/23/2022,17:47:40,.302781580
160,5.491547216963e-09,Amp DC,.00000001,5.5,F,F,F,F,F,F,Front,F,Main,79.4994888305664,Volt DC,100,T,2W,F,F,05/23/2022,17:47:40,.697647900
161,5.612681874823e-09,Amp DC,.00000001,5.5,F,F,F,F,F,F,Front,F,Main,79.9994354248047,Volt DC,100,T,2W,F,F,05/23/2022,17:47:41,.092491620
162,5.952637494033e-09,Amp DC,.00000001,5.5,F,F,F,F,F,F,Front,F,Main,80.4996490478516,Volt DC,100,T,2W,F,F,05/23/2022,17:47:41,.487356620
163,5.819613235758e-09,Amp DC,.00000001,5.5,F,F,F,F,F,F,Front,F,Main,80.9996643066406,Volt DC,100,T,2W,F,F,05/23/2022,17:47:41,.882228420
164,5.467945651816e-09,Amp DC,.00000001,5.5,F,F,F,F,F,F,Front,F,Main,81.4993515014648,Volt DC,100,T,2W,F,F,05/23/2022,17:47:42,.277107060
165,5.66435653937e-09,Amp DC,.00000001,5.5,F,F,F,F,F,F,Front,F,Main,81.9992446899414,Volt DC,100,T,2W,F,F,05/23/2022,17:47:42,.671983900
166,5.97759353127e-09,Amp DC,.00000001,5.5,F,F,F,F,F,F,Front,F,Main,82.4995040893555,Volt DC,100,T,2W,F,F,05/23/2022,17:47:43,.066832200
167,5.740339314997e-09,Amp DC,.00000001,5.5,F,F,F,F,F,F,Front,F,Main,82.9995651245117,Volt DC,100,T,2W,F,F,05/23/2022,17:47:43,.461697560
168,5.444659390008e-09,Amp DC,.00000001,5.5,F,F,F,F,F,F,Front,F,Main,83.4990310668945,Volt DC,100,T,2W,F,F,05/23/2022,17:47:43,.856564540
169,5.765779409472e-09,Amp DC,.00000001,5.5,F,F,F,F,F,F,Front,F,Main,83.9993743896484,Volt DC,100,T,2W,F,F,05/23/2022,17:47:44,.251432060
170,5.976566797017e-09,Amp DC,.00000001,5.5,F,F,F,F,F,F,Front,F,Main,84.4990615844727,Volt DC,100,T,2W,F,F,05/23/2022,17:47:44,.646320500
171,5.658721935475e-09,Amp DC,.00000001,5.5,F,F,F,F,F,F,Front,F,Main,84.9995117187500,Volt DC,100,T,2W,F,F,05/23/2022,17:47:45,.041192060
172,5.473949737933e-09,Amp DC,.00000001,5.5,F,F,F,F,F,F,Front,F,Main,85.4991531372070,Volt DC,100,T,2W,F,F,05/23/2022,17:47:45,.436076160
173,5.817545112308e-09,Amp DC,.00000001,5.5,F,F,F,F,F,F,Front,F,Main,85.9990921020508,Volt DC,100,T,2W,F,F,05/23/2022,17:47:45,.830959680
174,5.970288707857e-09,Amp DC,.00000001,5.5,F,F,F,F,F,F,Front,F,Main,86.4994049072266,Volt DC,100,T,2W,F,F,05/23/2022,17:47:46,.225801720
175,5.597906138632e-09,Amp DC,.00000001,5.5,F,F,F,F,F,F,Front,F,Main,86.9993209838867,Volt DC,100,T,2W,F,F,05/23/2022,17:47:46,.620673820
176,5.516579193454e-09,Amp DC,.00000001,5.5,F,F,F,F,F,F,Front,F,Main,87.4993515014648,Volt DC,100,T,2W,F,F,05/23/2022,17:47:47,.015528900
177,5.879237097162e-09,Amp DC,.00000001,5.5,F,F,F,F,F,F,Front,F,Main,87.9997863769531,Volt DC,100,T,2W,F,F,05/23/2022,17:47:47,.410378080
178,5.914285949871e-09,Amp DC,.00000001,5.5,F,F,F,F,F,F,Front,F,Main,88.4992904663086,Volt DC,100,T,2W,F,F,05/23/2022,17:47:47,.805252380
179,5.549726900256e-09,Amp DC,.00000001,5.5,F,F,F,F,F,F,Front,F,Main,88.9996261596680,Volt DC,100,T,2W,F,F,05/23/2022,17:47:48,.200109980
180,5.576171968613e-09,Amp DC,.00000001,5.5,F,F,F,F,F,F,Front,F,Main,89.4995956420898,Volt DC,100,T,2W,F,F,05/23/2022,17:47:48,.594967100
181,5.934859714785e-09,Amp DC,.00000001,5.5,F,F,F,F,F,F,Front,F,Main,89.9990615844727,Volt DC,100,T,2W,F,F,05/23/2022,17:47:48,.989843960
182,5.860929075396e-09,Amp DC,.00000001,5.5,F,F,F,F,F,F,Front,F,Main,90.4989852905273,Volt DC,100,T,2W,F,F,05/23/2022,17:47:49,.384707600
183,5.495630617247e-09,Amp DC,.00000001,5.5,F,F,F,F,F,F,Front,F,Main,90.9992828369141,Volt DC,100,T,2W,F,F,05/23/2022,17:47:49,.779558980
184,5.647616596605e-09,Amp DC,.00000001,5.5,F,F,F,F,F,F,Front,F,Main,91.4990158081055,Volt DC,100,T,2W,F,F,05/23/2022,17:47:50,.174419300
185,5.969666094785e-09,Amp DC,.00000001,5.5,F,F,F,F,F,F,Front,F,Main,91.9989318847656,Volt DC,100,T,2W,F,F,05/23/2022,17:47:50,.569293520
186,5.776933598156e-09,Amp DC,.00000001,5.5,F,F,F,F,F,F,Front,F,Main,92.4989166259766,Volt DC,100,T,2W,F,F,05/23/2022,17:47:50,.964153300
187,5.461580077082e-09,Amp DC,.00000001,5.5,F,F,F,F,F,F,Front,F,Main,92.9994964599609,Volt DC,100,T,2W,F,F,05/23/2022,17:47:51,.359015920
188,5.734676289393e-09,Amp DC,.00000001,5.5,F,F,F,F,F,F,Front,F,Main,93.4990005493164,Volt DC,100,T,2W,F,F,05/23/2022,17:47:51,.753883500
189,5.991617868517e-09,Amp DC,.00000001,5.5,F,F,F,F,F,F,Front,F,Main,93.9991607666016,Volt DC,100,T,2W,F,F,05/23/2022,17:47:52,.148754820
190,5.671411784647e-09,Amp DC,.00000001,5.5,F,F,F,F,F,F,Front,F,Main,94.4987487792969,Volt DC,100,T,2W,F,F,05/23/2022,17:47:52,.543603720
191,5.491029408944e-09,Amp DC,.00000001,5.5,F,F,F,F,F,F,Front,F,Main,94.9993133544922,Volt DC,100,T,2W,F,F,05/23/2022,17:47:52,.938465820
192,5.825870008636e-09,Amp DC,.00000001,5.5,F,F,F,F,F,F,Front,F,Main,95.4984436035156,Volt DC,100,T,2W,F,F,05/23/2022,17:47:53,.333331100
193,5.967942140472e-09,Amp DC,.00000001,5.5,F,F,F,F,F,F,Front,F,Main,95.9988098144531,Volt DC,100,T,2W,F,F,05/23/2022,17:47:53,.728199600
194,5.590351292994e-09,Amp DC,.00000001,5.5,F,F,F,F,F,F,Front,F,Main,96.4992370605469,Volt DC,100,T,2W,F,F,05/23/2022,17:47:54,.123086280
195,5.554411153241e-09,Amp DC,.00000001,5.5,F,F,F,F,F,F,Front,F,Main,96.9988327026367,Volt DC,100,T,2W,F,F,05/23/2022,17:47:54,.517955580
196,5.924614576713e-09,Amp DC,.00000001,5.5,F,F,F,F,F,F,Front,F,Main,97.4987945556641,Volt DC,100,T,2W,F,F,05/23/2022,17:47:54,.912823940
197,5.882573539395e-09,Amp DC,.00000001,5.5,F,F,F,F,F,F,Front,F,Main,97.9986953735352,Volt DC,100,T,2W,F,F,05/23/2022,17:47:55,.307668840
198,5.500707445094e-09,Amp DC,.00000001,5.5,F,F,F,F,F,F,Front,F,Main,98.4984970092773,Volt DC,100,T,2W,F,F,05/23/2022,17:47:55,.702555460
199,5.648469247888e-09,Amp DC,.00000001,5.5,F,F,F,F,F,F,Front,F,Main,98.9986648559570,Volt DC,100,T,2W,F,F,05/23/2022,17:47:56,.097433040
200,5.967504268511e-09,Amp DC,.00000001,5.5,F,F,F,F,F,F,Front,F,Main,99.4983139038086,Volt DC,100,T,2W,F,F,05/23/2022,17:47:56,.492315300
201,5.798955093894e-09,Amp DC,.00000001,5.5,F,F,F,F,F,F,Front,F,Main,99.9992675781250,Volt DC,100,T,2W,F,F,05/23/2022,17:47:56,.887183160
202,5.467682306914e-09,Amp DC,.00000001,5.5,F,F,F,F,F,F,Front,F,Main,100.4987411499023,Volt DC,100,T,2W,F,F,05/23/2022,17:47:57,.282031720
203,5.763868049513e-09,Amp DC,.00000001,5.5,F,F,F,F,F,F,Front,F,Main,100.9990997314453,Volt DC,100,T,2W,F,F,05/23/2022,17:47:57,.676899920
204,5.987756068748e-09,Amp DC,.00000001,5.5,F,F,F,F,F,F,Front,F,Main,101.4986953735352,Volt DC,100,T,2W,F,F,05/23/2022,17:47:58,.071775260
205,5.674010594703e-09,Amp DC,.00000001,5.5,F,F,F,F,F,F,Front,F,Main,101.9990234375000,Volt DC,100,T,2W,F,F,05/23/2022,17:47:58,.466622320
206,5.506983313808e-09,Amp DC,.00000001,5.5,F,F,F,F,F,F,Front,F,Main,102.4984512329102,Volt DC,100,T,2W,F,F,05/23/2022,17:47:58,.861504320
207,5.868002084242e-09,Amp DC,.00000001,5.5,F,F,F,F,F,F,Front,F,Main,102.9986267089844,Volt DC,100,T,2W,F,F,05/23/2022,17:47:59,.256368300
208,5.937373259712e-09,Amp DC,.00000001,5.5,F,F,F,F,F,F,Front,F,Main,103.4984817504883,Volt DC,100,T,2W,F,F,05/23/2022,17:47:59,.651239820
209,5.56054358114e-09,Amp DC,.00000001,5.5,F,F,F,F,F,F,Front,F,Main,103.9983749389648,Volt DC,100,T,2W,F,F,05/23/2022,17:48:00,.046090480
210,5.601599184502e-09,Amp DC,.00000001,5.5,F,F,F,F,F,F,Front,F,Main,104.4986190795898,Volt DC,100,T,2W,F,F,05/23/2022,17:48:00,.440942260
211,5.963109117602e-09,Amp DC,.00000001,5.5,F,F,F,F,F,F,Front,F,Main,104.9990310668945,Volt DC,100,T,2W,F,F,05/23/2022,17:48:00,.835820820
212,5.848197481839e-09,Amp DC,.00000001,5.5,F,F,F,F,F,F,Front,F,Main,105.4984359741211,Volt DC,100,T,2W,F,F,05/23/2022,17:48:01,.230663880
213,5.504209976692e-09,Amp DC,.00000001,5.5,F,F,F,F,F,F,Front,F,Main,105.9985733032227,Volt DC,100,T,2W,F,F,05/23/2022,17:48:01,.625543920
214,5.68770897047e-09,Amp DC,.00000001,5.5,F,F,F,F,F,F,Front,F,Main,106.4983367919922,Volt DC,100,T,2W,F,F,05/23/2022,17:48:02,.020392100
215,5.996360297189e-09,Amp DC,.00000001,5.5,F,F,F,F,F,F,Front,F,Main,106.9985733032227,Volt DC,100,T,2W,F,F,05/23/2022,17:48:02,.415282120
216,5.747122777677e-09,Amp DC,.00000001,5.5,F,F,F,F,F,F,Front,F,Main,107.4984512329102,Volt DC,100,T,2W,F,F,05/23/2022,17:48:02,.810144000
217,5.485974341468e-09,Amp DC,.00000001,5.5,F,F,F,F,F,F,Front,F,Main,107.9982833862305,Volt DC,100,T,2W,F,F,05/23/2022,17:48:03,.205010680
218,5.812971437535e-09,Amp DC,.00000001,5.5,F,F,F,F,F,F,Front,F,Main,108.4982299804688,Volt DC,100,T,2W,F,F,05/23/2022,17:48:03,.599878020
219,5.999013286129e-09,Amp DC,.00000001,5.5,F,F,F,F,F,F,Front,F,Main,108.9985275268555,Volt DC,100,T,2W,F,F,05/23/2022,17:48:03,.994761780
220,5.633840949315e-09,Amp DC,.00000001,5.5,F,F,F,F,F,F,Front,F,Main,109.4979629516602,Volt DC,100,T,2W,F,F,05/23/2022,17:48:04,.389628200
221,5.543848935474e-09,Amp DC,.00000001,5.5,F,F,F,F,F,F,Front,F,Main,109.9983825683594,Volt DC,100,T,2W,F,F,05/23/2022,17:48:04,.784508260
222,5.896291010998e-09,Amp DC,.00000001,5.5,F,F,F,F,F,F,Front,F,Main,110.4980773925781,Volt DC,100,T,2W,F,F,05/23/2022,17:48:05,.179370560
223,5.930960611522e-09,Amp DC,.00000001,5.5,F,F,F,F,F,F,Front,F,Main,110.9983673095703,Volt DC,100,T,2W,F,F,05/23/2022,17:48:05,.574246580
224,5.550728321424e-09,Amp DC,.00000001,5.5,F,F,F,F,F,F,Front,F,Main,111.4978485107422,Volt DC,100,T,2W,F,F,05/23/2022,17:48:05,.969096460
225,5.621841658865e-09,Amp DC,.00000001,5.5,F,F,F,F,F,F,Front,F,Main,111.9979400634766,Volt DC,100,T,2W,F,F,05/23/2022,17:48:06,.363951260
226,5.968986194205e-09,Amp DC,.00000001,5.5,F,F,F,F,F,F,Front,F,Main,112.4979095458984,Volt DC,100,T,2W,F,F,05/23/2022,17:48:06,.758809080
227,5.866414465316e-09,Amp DC,.00000001,5.5,F,F,F,F,F,F,Front,F,Main,112.9982833862305,Volt DC,100,T,2W,F,F,05/23/2022,17:48:07,.153688000
228,5.51105117097e-09,Amp DC,.00000001,5.5,F,F,F,F,F,F,Front,F,Main,113.4988174438477,Volt DC,100,T,2W,F,F,05/23/2022,17:48:07,.548573440
229,5.695423244134e-09,Amp DC,.00000001,5.5,F,F,F,F,F,F,Front,F,Main,113.9981155395508,Volt DC,100,T,2W,F,F,05/23/2022,17:48:07,.943451840
230,6.007642383565e-09,Amp DC,.00000001,5.5,F,F,F,F,F,F,Front,F,Main,114.4983444213867,Volt DC,100,T,2W,F,F,05/23/2022,17:48:08,.338319740
231,5.753615361925e-09,Amp DC,.00000001,5.5,F,F,F,F,F,F,Front,F,Main,114.9981918334961,Volt DC,100,T,2W,F,F,05/23/2022,17:48:08,.733183000
232,5.492463817092e-09,Amp DC,.00000001,5.5,F,F,F,F,F,F,Front,F,Main,115.4979476928711,Volt DC,100,T,2W,F,F,05/23/2022,17:48:09,.128056020
233,5.828709070954e-09,Amp DC,.00000001,5.5,F,F,F,F,F,F,Front,F,Main,115.9986877441406,Volt DC,100,T,2W,F,F,05/23/2022,17:48:09,.522919560
234,5.993194385212e-09,Amp DC,.00000001,5.5,F,F,F,F,F,F,Front,F,Main,116.4979782104492,Volt DC,100,T,2W,F,F,05/23/2022,17:48:09,.917785900
235,5.653439494324e-09,Amp DC,.00000001,5.5,F,F,F,F,F,F,Front,F,Main,116.9985427856445,Volt DC,100,T,2W,F,F,05/23/2022,17:48:10,.312651900
236,5.537549530032e-09,Amp DC,.00000001,5.5,F,F,F,F,F,F,Front,F,Main,117.4976196289063,Volt DC,100,T,2W,F,F,05/23/2022,17:48:10,.707515160
237,5.9156799459e-09,Amp DC,.00000001,5.5,F,F,F,F,F,F,Front,F,Main,117.9980468750000,Volt DC,100,T,2W,F,F,05/23/2022,17:48:11,.102387560
238,5.936418023822e-09,Amp DC,.00000001,5.5,F,F,F,F,F,F,Front,F,Main,118.4981002807617,Volt DC,100,T,2W,F,F,05/23/2022,17:48:11,.497273000
239,5.561529903275e-09,Amp DC,.00000001,5.5,F,F,F,F,F,F,Front,F,Main,118.9978942871094,Volt DC,100,T,2W,F,F,05/23/2022,17:48:11,.892134540
240,5.625683474619e-09,Amp DC,.00000001,5.5,F,F,F,F,F,F,Front,F,Main,119.4978103637695,Volt DC,100,T,2W,F,F,05/23/2022,17:48:12,.287014120
241,5.981656059362e-09,Amp DC,.00000001,5.5,F,F,F,F,F,F,Front,F,Main,119.9979248046875,Volt DC,100,T,2W,F,F,05/23/2022,17:48:12,.681856500
242,5.853324935856e-09,Amp DC,.00000001,5.5,F,F,F,F,F,F,Front,F,Main,120.4975204467773,Volt DC,100,T,2W,F,F,05/23/2022,17:48:13,.076740160
243,5.50717871306e-09,Amp DC,.00000001,5.5,F,F,F,F,F,F,Front,F,Main,120.9976882934570,Volt DC,100,T,2W,F,F,05/23/2022,17:48:13,.471600960
244,5.733970631638e-09,Amp DC,.00000001,5.5,F,F,F,F,F,F,Front,F,Main,121.4979858398438,Volt DC,100,T,2W,F,F,05/23/2022,17:48:13,.866447260
245,6.011868336486e-09,Amp DC,.00000001,5.5,F,F,F,F,F,F,Front,F,Main,121.9975509643555,Volt DC,100,T,2W,F,F,05/23/2022,17:48:14,.261306940
246,5.726697782649e-09,Amp DC,.00000001,5.5,F,F,F,F,F,F,Front,F,Main,122.4971313476563,Volt DC,100,T,2W,F,F,05/23/2022,17:48:14,.656185120
247,5.516430423569e-09,Amp DC,.00000001,5.5,F,F,F,F,F,F,Front,F,Main,122.9975738525391,Volt DC,100,T,2W,F,F,05/23/2022,17:48:15,.051050720
248,5.844310368985e-09,Amp DC,.00000001,5.5,F,F,F,F,F,F,Front,F,Main,123.4971771240234,Volt DC,100,T,2W,F,F,05/23/2022,17:48:15,.445925720
249,6.003085140094e-09,Amp DC,.00000001,5.5,F,F,F,F,F,F,Front,F,Main,123.9972915649414,Volt DC,100,T,2W,F,F,05/23/2022,17:48:15,.840811360
250,5.639317013362e-09,Amp DC,.00000001,5.5,F,F,F,F,F,F,Front,F,Main,124.4973297119141,Volt DC,100,T,2W,F,F,05/23/2022,17:48:16,.235682860
251,5.57335821938e-09,Amp DC,.00000001,5.5,F,F,F,F,F,F,Front,F,Main,124.9976959228516,Volt DC,100,T,2W,F,F,05/23/2022,17:48:16,.630535980
252,5.927165425135e-09,Amp DC,.00000001,5.5,F,F,F,F,F,F,Front,F,Main,125.4971160888672,Volt DC,100,T,2W,F,F,05/23/2022,17:48:17,.025400000
253,5.927479840295e-09,Amp DC,.00000001,5.5,F,F,F,F,F,F,Front,F,Main,125.9969177246094,Volt DC,100,T,2W,F,F,05/23/2022,17:48:17,.420292820
254,5.55698020932e-09,Amp DC,.00000001,5.5,F,F,F,F,F,F,Front,F,Main,126.4967956542969,Volt DC,100,T,2W,F,F,05/23/2022,17:48:17,.815160680
255,5.657241786139e-09,Amp DC,.00000001,5.5,F,F,F,F,F,F,Front,F,Main,126.9977188110352,Volt DC,100,T,2W,F,F,05/23/2022,17:48:18,.210020720
256,5.988714413263e-09,Amp DC,.00000001,5.5,F,F,F,F,F,F,Front,F,Main,127.4971084594727,Volt DC,100,T,2W,F,F,05/23/2022,17:48:18,.604892400
257,5.852248463611e-09,Amp DC,.00000001,5.5,F,F,F,F,F,F,Front,F,Main,127.9974594116211,Volt DC,100,T,2W,F,F,05/23/2022,17:48:18,.999771760
258,5.513142831148e-09,Amp DC,.00000001,5.5,F,F,F,F,F,F,Front,F,Main,128.4974365234375,Volt DC,100,T,2W,F,F,05/23/2022,17:48:19,.394643980
259,5.738132191624e-09,Amp DC,.00000001,5.5,F,F,F,F,F,F,Front,F,Main,128.9974060058594,Volt DC,100,T,2W,F,F,05/23/2022,17:48:19,.789518120
260,6.024470700083e-09,Amp DC,.00000001,5.5,F,F,F,F,F,F,Front,F,Main,129.4972991943359,Volt DC,100,T,2W,F,F,05/23/2022,17:48:20,.184381340
261,5.750031117913e-09,Amp DC,.00000001,5.5,F,F,F,F,F,F,Front,F,Main,129.9972381591797,Volt DC,100,T,2W,F,F,05/23/2022,17:48:20,.579242020
262,5.512143630426e-09,Amp DC,.00000001,5.5,F,F,F,F,F,F,Front,F,Main,130.4973144531250,Volt DC,100,T,2W,F,F,05/23/2022,17:48:20,.974100500
263,5.843136641204e-09,Amp DC,.00000001,5.5,F,F,F,F,F,F,Front,F,Main,130.9971618652344,Volt DC,100,T,2W,F,F,05/23/2022,17:48:21,.368958160
264,6.01371530351e-09,Amp DC,.00000001,5.5,F,F,F,F,F,F,Front,F,Main,131.4969787597656,Volt DC,100,T,2W,F,F,05/23/2022,17:48:21,.763841100
265,5.673092218217e-09,Amp DC,.00000001,5.5,F,F,F,F,F,F,Front,F,Main,131.9972991943359,Volt DC,100,T,2W,F,F,05/23/2022,17:48:22,.158709220
266,5.539292136092e-09,Amp DC,.00000001,5.5,F,F,F,F,F,F,Front,F,Main,132.4970092773438,Volt DC,100,T,2W,F,F,05/23/2022,17:48:22,.553600920
267,5.919203349691e-09,Amp DC,.00000001,5.5,F,F,F,F,F,F,Front,F,Main,132.9976806640625,Volt DC,100,T,2W,F,F,05/23/2022,17:48:22,.948487900
268,5.956462434398e-09,Amp DC,.00000001,5.5,F,F,F,F,F,F,Front,F,Main,133.4968872070313,Volt DC,100,T,2W,F,F,05/23/2022,17:48:23,.343351900
269,5.594325891423e-09,Amp DC,.00000001,5.5,F,F,F,F,F,F,Front,F,Main,133.9972991943359,Volt DC,100,T,2W,F,F,05/23/2022,17:48:23,.738228860
270,5.614542164523e-09,Amp DC,.00000001,5.5,F,F,F,F,F,F,Front,F,Main,134.4964141845703,Volt DC,100,T,2W,F,F,05/23/2022,17:48:24,.133092500
271,5.988050943984e-09,Amp DC,.00000001,5.5,F,F,F,F,F,F,Front,F,Main,134.9968872070313,Volt DC,100,T,2W,F,F,05/23/2022,17:48:24,.527942780
272,5.909622569078e-09,Amp DC,.00000001,5.5,F,F,F,F,F,F,Front,F,Main,135.4971771240234,Volt DC,100,T,2W,F,F,05/23/2022,17:48:24,.922816520
273,5.542092562649e-09,Amp DC,.00000001,5.5,F,F,F,F,F,F,Front,F,Main,135.9965515136719,Volt DC,100,T,2W,F,F,05/23/2022,17:48:25,.317670900
274,5.683423509595e-09,Amp DC,.00000001,5.5,F,F,F,F,F,F,Front,F,Main,136.4966583251953,Volt DC,100,T,2W,F,F,05/23/2022,17:48:25,.712538680
275,6.014021725065e-09,Amp DC,.00000001,5.5,F,F,F,F,F,F,Front,F,Main,136.9968719482422,Volt DC,100,T,2W,F,F,05/23/2022,17:48:26,.107406160
276,5.840416594793e-09,Amp DC,.00000001,5.5,F,F,F,F,F,F,Front,F,Main,137.4965515136719,Volt DC,100,T,2W,F,F,05/23/2022,17:48:26,.502271500
277,5.518176138253e-09,Amp DC,.00000001,5.5,F,F,F,F,F,F,Front,F,Main,137.9964294433594,Volt DC,100,T,2W,F,F,05/23/2022,17:48:26,.897124340
278,5.759002164041e-09,Amp DC,.00000001,5.5,F,F,F,F,F,F,Front,F,Main,138.4961395263672,Volt DC,100,T,2W,F,F,05/23/2022,17:48:27,.291985180
279,6.040376643313e-09,Amp DC,.00000001,5.5,F,F,F,F,F,F,Front,F,Main,138.9967803955078,Volt DC,100,T,2W,F,F,05/23/2022,17:48:27,.686861360
280,5.749304587965e-09,Amp DC,.00000001,5.5,F,F,F,F,F,F,Front,F,Main,139.4962158203125,Volt DC,100,T,2W,F,F,05/23/2022,17:48:28,.081746120
281,5.528724589254e-09,Amp DC,.00000001,5.5,F,F,F,F,F,F,Front,F,Main,139.9962158203125,Volt DC,100,T,2W,F,F,05/23/2022,17:48:28,.476581120
282,5.851390039169e-09,Amp DC,.00000001,5.5,F,F,F,F,F,F,Front,F,Main,140.4963836669922,Volt DC,100,T,2W,F,F,05/23/2022,17:48:28,.871436160
283,6.043380018639e-09,Amp DC,.00000001,5.5,F,F,F,F,F,F,Front,F,Main,140.9975585937500,Volt DC,100,T,2W,F,F,05/23/2022,17:48:29,.266304180
284,5.668483904486e-09,Amp DC,.00000001,5.5,F,F,F,F,F,F,Front,F,Main,141.4966735839844,Volt DC,100,T,2W,F,F,05/23/2022,17:48:29,.661149800
285,5.556903825976e-09,Amp DC,.00000001,5.5,F,F,F,F,F,F,Front,F,Main,141.9966583251953,Volt DC,100,T,2W,F,F,05/23/2022,17:48:30,.056012480
286,5.908302735946e-09,Amp DC,.00000001,5.5,F,F,F,F,F,F,Front,F,Main,142.4965209960938,Volt DC,100,T,2W,F,F,05/23/2022,17:48:30,.450885740
287,5.997123686541e-09,Amp DC,.00000001,5.5,F,F,F,F,F,F,Front,F,Main,142.9966888427734,Volt DC,100,T,2W,F,F,05/23/2022,17:48:30,.845764220
288,5.619567478021e-09,Amp DC,.00000001,5.5,F,F,F,F,F,F,Front,F,Main,143.4965209960938,Volt DC,100,T,2W,F,F,05/23/2022,17:48:31,.240634200
289,5.608064235219e-09,Amp DC,.00000001,5.5,F,F,F,F,F,F,Front,F,Main,143.9968261718750,Volt DC,100,T,2W,F,F,05/23/2022,17:48:31,.635500220
290,5.953197046438e-09,Amp DC,.00000001,5.5,F,F,F,F,F,F,Front,F,Main,144.4964294433594,Volt DC,100,T,2W,F,F,05/23/2022,17:48:32,.030365260
291,5.960960169915e-09,Amp DC,.00000001,5.5,F,F,F,F,F,F,Front,F,Main,144.9968719482422,Volt DC,100,T,2W,F,F,05/23/2022,17:48:32,.425228820
292,5.5836095747e-09,Amp DC,.00000001,5.5,F,F,F,F,F,F,Front,F,Main,145.4963684082031,Volt DC,100,T,2W,F,F,05/23/2022,17:48:32,.820077700
293,5.65452085155e-09,Amp DC,.00000001,5.5,F,F,F,F,F,F,Front,F,Main,145.9962615966797,Volt DC,100,T,2W,F,F,05/23/2022,17:48:33,.214954080
294,6.006007691184e-09,Amp DC,.00000001,5.5,F,F,F,F,F,F,Front,F,Main,146.4966125488281,Volt DC,100,T,2W,F,F,05/23/2022,17:48:33,.609830980
295,5.911294120864e-09,Amp DC,.00000001,5.5,F,F,F,F,F,F,Front,F,Main,146.9964599609375,Volt DC,100,T,2W,F,F,05/23/2022,17:48:34,.004701600
296,5.553888460241e-09,Amp DC,.00000001,5.5,F,F,F,F,F,F,Front,F,Main,147.4961853027344,Volt DC,100,T,2W,F,F,05/23/2022,17:48:34,.399554680
297,5.700947713905e-09,Amp DC,.00000001,5.5,F,F,F,F,F,F,Front,F,Main,147.9962158203125,Volt DC,100,T,2W,F,F,05/23/2022,17:48:34,.794414760
298,6.018754827863e-09,Amp DC,.00000001,5.5,F,F,F,F,F,F,Front,F,Main,148.4958953857422,Volt DC,100,T,2W,F,F,05/23/2022,17:48:35,.189267780
299,5.868152630484e-09,Amp DC,.00000001,5.5,F,F,F,F,F,F,Front,F,Main,148.9967803955078,Volt DC,100,T,2W,F,F,05/23/2022,17:48:35,.584125340
300,5.529904978374e-09,Amp DC,.00000001,5.5,F,F,F,F,F,F,Front,F,Main,149.4958343505859,Volt DC,100,T,2W,F,F,05/23/2022,17:48:35,.978992700
301,5.760522725495e-09,Amp DC,.00000001,5.5,F,F,F,F,F,F,Front,F,Main,149.9961700439453,Volt DC,100,T,2W,F,F,05/23/2022,17:48:36,.373851480
302,6.040818067987e-09,Amp DC,.00000001,5.5,F,F,F,F,F,F,Front,F,Main,150.4956817626953,Volt DC,100,T,2W,F,F,05/23/2022,17:48:36,.768733040
303,5.808124647899e-09,Amp DC,.00000001,5.5,F,F,F,F,F,F,Front,F,Main,150.9960784912109,Volt DC,100,T,2W,F,F,05/23/2022,17:48:37,.163585480
304,5.518406176463e-09,Amp DC,.00000001,5.5,F,F,F,F,F,F,Front,F,Main,151.4955444335938,Volt DC,100,T,2W,F,F,05/23/2022,17:48:37,.558464640
305,5.834330796262e-09,Amp DC,.00000001,5.5,F,F,F,F,F,F,Front,F,Main,151.9960479736328,Volt DC,100,T,2W,F,F,05/23/2022,17:48:37,.953341140
306,6.050360656928e-09,Amp DC,.00000001,5.5,F,F,F,F,F,F,Front,F,Main,152.4960021972656,Volt DC,100,T,2W,F,F,05/23/2022,17:48:38,.348187860
307,5.759231758162e-09,Amp DC,.00000001,5.5,F,F,F,F,F,F,Front,F,Main,152.9987335205078,Volt DC,100,T,2W,F,F,05/23/2022,17:48:38,.743084520
308,5.558682403262e-09,Amp DC,.00000001,5.5,F,F,F,F,F,F,Front,F,Main,153.4996795654297,Volt DC,100,T,2W,F,F,05/23/2022,17:48:39,.137975340
309,5.877687669908e-09,Amp DC,.00000001,5.5,F,F,F,F,F,F,Front,F,Main,153.9989624023438,Volt DC,100,T,2W,F,F,05/23/2022,17:48:39,.532845840
310,6.044106548586e-09,Amp DC,.00000001,5.5,F,F,F,F,F,F,Front,F,Main,154.4995269775391,Volt DC,100,T,2W,F,F,05/23/2022,17:48:39,.927705700
311,5.673159719777e-09,Amp DC,.00000001,5.5,F,F,F,F,F,F,Front,F,Main,154.9996337890625,Volt DC,100,T,2W,F,F,05/23/2022,17:48:40,.322572280
312,5.591192842047e-09,Amp DC,.00000001,5.5,F,F,F,F,F,F,Front,F,Main,155.4995880126953,Volt DC,100,T,2W,F,F,05/23/2022,17:48:40,.717418540
313,5.948546544232e-09,Amp DC,.00000001,5.5,F,F,F,F,F,F,Front,F,Main,155.9992065429688,Volt DC,100,T,2W,F,F,05/23/2022,17:48:41,.112275660
314,5.984906348289e-09,Amp DC,.00000001,5.5,F,F,F,F,F,F,Front,F,Main,156.4989013671875,Volt DC,100,T,2W,F,F,05/23/2022,17:48:41,.507144840
315,5.618398635221e-09,Amp DC,.00000001,5.5,F,F,F,F,F,F,Front,F,Main,156.9993286132813,Volt DC,100,T,2W,F,F,05/23/2022,17:48:41,.902017040
316,5.659960056192e-09,Amp DC,.00000001,5.5,F,F,F,F,F,F,Front,F,Main,157.5000305175781,Volt DC,100,T,2W,F,F,05/23/2022,17:48:42,.296905020
317,5.99530336487e-09,Amp DC,.00000001,5.5,F,F,F,F,F,F,Front,F,Main,157.9990386962891,Volt DC,100,T,2W,F,F,05/23/2022,17:48:42,.691779780
318,5.939845060254e-09,Amp DC,.00000001,5.5,F,F,F,F,F,F,Front,F,Main,158.4992675781250,Volt DC,100,T,2W,F,F,05/23/2022,17:48:43,.086638140
319,5.577532213863e-09,Amp DC,.00000001,5.5,F,F,F,F,F,F,Front,F,Main,158.9991302490234,Volt DC,100,T,2W,F,F,05/23/2022,17:48:43,.481495440
320,5.710755868193e-09,Amp DC,.00000001,5.5,F,F,F,F,F,F,Front,F,Main,159.4990386962891,Volt DC,100,T,2W,F,F,05/23/2022,17:48:43,.876343680
321,6.033473720635e-09,Amp DC,.00000001,5.5,F,F,F,F,F,F,Front,F,Main,159.9987640380859,Volt DC,100,T,2W,F,F,05/23/2022,17:48:44,.271220940
322,5.886008125344e-09,Amp DC,.00000001,5.5,F,F,F,F,F,F,Front,F,Main,160.4996032714844,Volt DC,100,T,2W,F,F,05/23/2022,17:48:44,.666085460
323,5.549233073054e-09,Amp DC,.00000001,5.5,F,F,F,F,F,F,Front,F,Main,160.9991302490234,Volt DC,100,T,2W,F,F,05/23/2022,17:48:45,.060933520
324,5.773791222907e-09,Amp DC,.00000001,5.5,F,F,F,F,F,F,Front,F,Main,161.4993133544922,Volt DC,100,T,2W,F,F,05/23/2022,17:48:45,.455810720
325,6.053762380276e-09,Amp DC,.00000001,5.5,F,F,F,F,F,F,Front,F,Main,161.9989013671875,Volt DC,100,T,2W,F,F,05/23/2022,17:48:45,.850669900
326,5.808696634801e-09,Amp DC,.00000001,5.5,F,F,F,F,F,F,Front,F,Main,162.4990234375000,Volt DC,100,T,2W,F,F,05/23/2022,17:48:46,.245537780
327,5.534730007639e-09,Amp DC,.00000001,5.5,F,F,F,F,F,F,Front,F,Main,162.9985504150391,Volt DC,100,T,2W,F,F,05/23/2022,17:48:46,.640399600
328,5.852947015939e-09,Amp DC,.00000001,5.5,F,F,F,F,F,F,Front,F,Main,163.4991302490234,Volt DC,100,T,2W,F,F,05/23/2022,17:48:47,.035273960
329,6.054307277736e-09,Amp DC,.00000001,5.5,F,F,F,F,F,F,Front,F,Main,163.9985198974609,Volt DC,100,T,2W,F,F,05/23/2022,17:48:47,.430142340
330,5.748954201579e-09,Amp DC,.00000001,5.5,F,F,F,F,F,F,Front,F,Main,164.4988708496094,Volt DC,100,T,2W,F,F,05/23/2022,17:48:47,.825012240
331,5.55256862711e-09,Amp DC,.00000001,5.5,F,F,F,F,F,F,Front,F,Main,164.9983367919922,Volt DC,100,T,2W,F,F,05/23/2022,17:48:48,.219871420
332,5.917483392182e-09,Amp DC,.00000001,5.5,F,F,F,F,F,F,Front,F,Main,165.4989471435547,Volt DC,100,T,2W,F,F,05/23/2022,17:48:48,.614746280
333,6.047659262265e-09,Amp DC,.00000001,5.5,F,F,F,F,F,F,Front,F,Main,165.9992370605469,Volt DC,100,T,2W,F,F,05/23/2022,17:48:49,.009619800
334,5.672208480689e-09,Amp DC,.00000001,5.5,F,F,F,F,F,F,Front,F,Main,166.4983215332031,Volt DC,100,T,2W,F,F,05/23/2022,17:48:49,.404486440
335,5.610255815469e-09,Amp DC,.00000001,5.5,F,F,F,F,F,F,Front,F,Main,166.9982757568359,Volt DC,100,T,2W,F,F,05/23/2022,17:48:49,.799346620
336,5.971237282409e-09,Amp DC,.00000001,5.5,F,F,F,F,F,F,Front,F,Main,167.4988403320313,Volt DC,100,T,2W,F,F,05/23/2022,17:48:50,.194211480
337,5.999400976009e-09,Amp DC,.00000001,5.5,F,F,F,F,F,F,Front,F,Main,167.9987182617188,Volt DC,100,T,2W,F,F,05/23/2022,17:48:50,.589085000
338,5.635259814341e-09,Amp DC,.00000001,5.5,F,F,F,F,F,F,Front,F,Main,168.4988861083984,Volt DC,100,T,2W,F,F,05/23/2022,17:48:50,.983940400
339,5.663554514257e-09,Amp DC,.00000001,5.5,F,F,F,F,F,F,Front,F,Main,168.9987945556641,Volt DC,100,T,2W,F,F,05/23/2022,17:48:51,.378797220
340,6.029661658857e-09,Amp DC,.00000001,5.5,F,F,F,F,F,F,Front,F,Main,169.4996337890625,Volt DC,100,T,2W,F,F,05/23/2022,17:48:51,.773666340
341,5.939937874899e-09,Amp DC,.00000001,5.5,F,F,F,F,F,F,Front,F,Main,169.9985198974609,Volt DC,100,T,2W,F,F,05/23/2022,17:48:52,.168525660
342,5.601915820108e-09,Amp DC,.00000001,5.5,F,F,F,F,F,F,Front,F,Main,170.4986419677734,Volt DC,100,T,2W,F,F,05/23/2022,17:48:52,.563371140
343,5.715626638647e-09,Amp DC,.00000001,5.5,F,F,F,F,F,F,Front,F,Main,170.9986114501953,Volt DC,100,T,2W,F,F,05/23/2022,17:48:52,.958247160
344,6.054440504499e-09,Amp DC,.00000001,5.5,F,F,F,F,F,F,Front,F,Main,171.4990997314453,Volt DC,100,T,2W,F,F,05/23/2022,17:48:53,.353113740
345,5.88229553955e-09,Amp DC,.00000001,5.5,F,F,F,F,F,F,Front,F,Main,171.9985961914063,Volt DC,100,T,2W,F,F,05/23/2022,17:48:53,.747970940
346,5.562144078652e-09,Amp DC,.00000001,5.5,F,F,F,F,F,F,Front,F,Main,172.4985046386719,Volt DC,100,T,2W,F,F,05/23/2022,17:48:54,.142844100
347,5.796444213502e-09,Amp DC,.00000001,5.5,F,F,F,F,F,F,Front,F,Main,172.9988098144531,Volt DC,100,T,2W,F,F,05/23/2022,17:48:54,.537707040
348,6.074978298187e-09,Amp DC,.00000001,5.5,F,F,F,F,F,F,Front,F,Main,173.4986877441406,Volt DC,100,T,2W,F,F,05/23/2022,17:48:54,.932568440
349,5.808240555183e-09,Amp DC,.00000001,5.5,F,F,F,F,F,F,Front,F,Main,173.9986724853516,Volt DC,100,T,2W,F,F,05/23/2022,17:48:55,.327457420
350,5.563526084273e-09,Amp DC,.00000001,5.5,F,F,F,F,F,F,Front,F,Main,174.4991912841797,Volt DC,100,T,2W,F,F,05/23/2022,17:48:55,.722324480
351,5.87032999988e-09,Amp DC,.00000001,5.5,F,F,F,F,F,F,Front,F,Main,174.9982147216797,Volt DC,100,T,2W,F,F,05/23/2022,17:48:56,.117192740
352,6.076523728638e-09,Amp DC,.00000001,5.5,F,F,F,F,F,F,Front,F,Main,175.4986267089844,Volt DC,100,T,2W,F,F,05/23/2022,17:48:56,.512052380
353,5.721755513832e-09,Amp DC,.00000001,5.5,F,F,F,F,F,F,Front,F,Main,175.9980621337891,Volt DC,100,T,2W,F,F,05/23/2022,17:48:56,.906907600
354,5.605822472887e-09,Amp DC,.00000001,5.5,F,F,F,F,F,F,Front,F,Main,176.4983825683594,Volt DC,100,T,2W,F,F,05/23/2022,17:48:57,.301740700
355,5.958703308551e-09,Amp DC,.00000001,5.5,F,F,F,F,F,F,Front,F,Main,176.9984436035156,Volt DC,100,T,2W,F,F,05/23/2022,17:48:57,.696607980
356,6.022158771657e-09,Amp DC,.00000001,5.5,F,F,F,F,F,F,Front,F,Main,177.4988098144531,Volt DC,100,T,2W,F,F,05/23/2022,17:48:58,.091475960
357,5.644090528278e-09,Amp DC,.00000001,5.5,F,F,F,F,F,F,Front,F,Main,177.9982147216797,Volt DC,100,T,2W,F,F,05/23/2022,17:48:58,.486330900
358,5.68508395915e-09,Amp DC,.00000001,5.5,F,F,F,F,F,F,Front,F,Main,178.4985504150391,Volt DC,100,T,2W,F,F,05/23/2022,17:48:58,.881212820
359,6.028713528394e-09,Amp DC,.00000001,5.5,F,F,F,F,F,F,Front,F,Main,178.9977264404297,Volt DC,100,T,2W,F,F,05/23/2022,17:48:59,.276070160
360,5.954656323581e-09,Amp DC,.00000001,5.5,F,F,F,F,F,F,Front,F,Main,179.4984588623047,Volt DC,100,T,2W,F,F,05/23/2022,17:48:59,.670933320
361,5.591334950594e-09,Amp DC,.00000001,5.5,F,F,F,F,F,F,Front,F,Main,179.9979705810547,Volt DC,100,T,2W,F,F,05/23/2022,17:49:00,.065785540
362,5.757197385492e-09,Amp DC,.00000001,5.5,F,F,F,F,F,F,Front,F,Main,180.4980163574219,Volt DC,100,T,2W,F,F,05/23/2022,17:49:00,.460641140
363,6.069195368497e-09,Amp DC,.00000001,5.5,F,F,F,F,F,F,Front,F,Main,180.9979705810547,Volt DC,100,T,2W,F,F,05/23/2022,17:49:00,.855510500
364,5.878427078443e-09,Amp DC,.00000001,5.5,F,F,F,F,F,F,Front,F,Main,181.4988250732422,Volt DC,100,T,2W,F,F,05/23/2022,17:49:01,.250392560
365,5.555826465553e-09,Amp DC,.00000001,5.5,F,F,F,F,F,F,Front,F,Main,181.9984436035156,Volt DC,100,T,2W,F,F,05/23/2022,17:49:01,.645273460
366,5.841319872246e-09,Amp DC,.00000001,5.5,F,F,F,F,F,F,Front,F,Main,182.4985351562500,Volt DC,100,T,2W,F,F,05/23/2022,17:49:02,.040154500
367,6.086842141428e-09,Amp DC,.00000001,5.5,F,F,F,F,F,F,Front,F,Main,182.9983215332031,Volt DC,100,T,2W,F,F,05/23/2022,17:49:02,.435016920
368,5.773183264779e-09,Amp DC,.00000001,5.5,F,F,F,F,F,F,Front,F,Main,183.4982604980469,Volt DC,100,T,2W,F,F,05/23/2022,17:49:02,.829887780
369,5.580004902583e-09,Amp DC,.00000001,5.5,F,F,F,F,F,F,Front,F,Main,183.9982147216797,Volt DC,100,T,2W,F,F,05/23/2022,17:49:03,.224736960
370,5.932070390458e-09,Amp DC,.00000001,5.5,F,F,F,F,F,F,Front,F,Main,184.4981536865234,Volt DC,100,T,2W,F,F,05/23/2022,17:49:03,.619602280
371,6.062303992138e-09,Amp DC,.00000001,5.5,F,F,F,F,F,F,Front,F,Main,184.9980316162109,Volt DC,100,T,2W,F,F,05/23/2022,17:49:04,.014456120
372,5.714001716228e-09,Amp DC,.00000001,5.5,F,F,F,F,F,F,Front,F,Main,185.4993438720703,Volt DC,100,T,2W,F,F,05/23/2022,17:49:04,.409302800
373,5.624726906461e-09,Amp DC,.00000001,5.5,F,F,F,F,F,F,Front,F,Main,185.9980316162109,Volt DC,100,T,2W,F,F,05/23/2022,17:49:04,.804173640
374,6.008470609942e-09,Amp DC,.00000001,5.5,F,F,F,F,F,F,Front,F,Main,186.4982757568359,Volt DC,100,T,2W,F,F,05/23/2022,17:49:05,.199025460
375,5.999077679064e-09,Amp DC,.00000001,5.5,F,F,F,F,F,F,Front,F,Main,186.9976196289063,Volt DC,100,T,2W,F,F,05/23/2022,17:49:05,.593891420
376,5.64309488027e-09,Amp DC,.00000001,5.5,F,F,F,F,F,F,Front,F,Main,187.4984741210938,Volt DC,100,T,2W,F,F,05/23/2022,17:49:05,.988732660
377,5.713076234315e-09,Amp DC,.00000001,5.5,F,F,F,F,F,F,Front,F,Main,187.9983978271484,Volt DC,100,T,2W,F,F,05/23/2022,17:49:06,.383588460
378,6.047615741522e-09,Amp DC,.00000001,5.5,F,F,F,F,F,F,Front,F,Main,188.4977416992188,Volt DC,100,T,2W,F,F,05/23/2022,17:49:06,.778467360
379,5.947506487303e-09,Amp DC,.00000001,5.5,F,F,F,F,F,F,Front,F,Main,188.9979858398438,Volt DC,100,T,2W,F,F,05/23/2022,17:49:07,.173340600
380,5.599888108776e-09,Amp DC,.00000001,5.5,F,F,F,F,F,F,Front,F,Main,189.4980621337891,Volt DC,100,T,2W,F,F,05/23/2022,17:49:07,.568190980
381,5.769705602177e-09,Amp DC,.00000001,5.5,F,F,F,F,F,F,Front,F,Main,189.9975128173828,Volt DC,100,T,2W,F,F,05/23/2022,17:49:07,.963059080
382,6.081749770459e-09,Amp DC,.00000001,5.5,F,F,F,F,F,F,Front,F,Main,190.4974822998047,Volt DC,100,T,2W,F,F,05/23/2022,17:49:08,.357918480
383,5.858973306516e-09,Amp DC,.00000001,5.5,F,F,F,F,F,F,Front,F,Main,190.9977722167969,Volt DC,100,T,2W,F,F,05/23/2022,17:49:08,.752773560
384,5.576939798857e-09,Amp DC,.00000001,5.5,F,F,F,F,F,F,Front,F,Main,191.4980316162109,Volt DC,100,T,2W,F,F,05/23/2022,17:49:09,.147644420
385,5.865353980283e-09,Amp DC,.00000001,5.5,F,F,F,F,F,F,Front,F,Main,191.9971008300781,Volt DC,100,T,2W,F,F,05/23/2022,17:49:09,.542504780
386,6.099999616538e-09,Amp DC,.00000001,5.5,F,F,F,F,F,F,Front,F,Main,192.4976196289063,Volt DC,100,T,2W,F,F,05/23/2022,17:49:09,.937382740
387,5.762371912965e-09,Amp DC,.00000001,5.5,F,F,F,F,F,F,Front,F,Main,192.9973297119141,Volt DC,100,T,2W,F,F,05/23/2022,17:49:10,.332253480
388,5.607644126826e-09,Amp DC,.00000001,5.5,F,F,F,F,F,F,Front,F,Main,193.4977722167969,Volt DC,100,T,2W,F,F,05/23/2022,17:49:10,.727117760
389,5.942982550522e-09,Amp DC,.00000001,5.5,F,F,F,F,F,F,Front,F,Main,193.9975128173828,Volt DC,100,T,2W,F,F,05/23/2022,17:49:11,.121971660
390,6.069825975175e-09,Amp DC,.00000001,5.5,F,F,F,F,F,F,Front,F,Main,194.4975128173828,Volt DC,100,T,2W,F,F,05/23/2022,17:49:11,.516807840
391,5.70608715833e-09,Amp DC,.00000001,5.5,F,F,F,F,F,F,Front,F,Main,194.9976959228516,Volt DC,100,T,2W,F,F,05/23/2022,17:49:11,.911660560
392,5.657006418858e-09,Amp DC,.00000001,5.5,F,F,F,F,F,F,Front,F,Main,195.4976196289063,Volt DC,100,T,2W,F,F,05/23/2022,17:49:12,.306546260
393,6.012718323234e-09,Amp DC,.00000001,5.5,F,F,F,F,F,F,Front,F,Main,195.9974517822266,Volt DC,100,T,2W,F,F,05/23/2022,17:49:12,.701399760
394,6.013657571913e-09,Amp DC,.00000001,5.5,F,F,F,F,F,F,Front,F,Main,196.4980316162109,Volt DC,100,T,2W,F,F,05/23/2022,17:49:13,.096275440
395,5.62835822393e-09,Amp DC,.00000001,5.5,F,F,F,F,F,F,Front,F,Main,196.9973907470703,Volt DC,100,T,2W,F,F,05/23/2022,17:49:13,.491114280
396,5.739071884392e-09,Amp DC,.00000001,5.5,F,F,F,F,F,F,Front,F,Main,197.4980468750000,Volt DC,100,T,2W,F,F,05/23/2022,17:49:13,.885965580
397,6.070105751377e-09,Amp DC,.00000001,5.5,F,F,F,F,F,F,Front,F,Main,197.9979858398438,Volt DC,100,T,2W,F,F,05/23/2022,17:49:14,.280836420
398,5.927554891372e-09,Amp DC,.00000001,5.5,F,F,F,F,F,F,Front,F,Main,198.4974060058594,Volt DC,100,T,2W,F,F,05/23/2022,17:49:14,.675706180
399,5.603086883355e-09,Amp DC,.00000001,5.5,F,F,F,F,F,F,Front,F,Main,198.9973144531250,Volt DC,100,T,2W,F,F,05/23/2022,17:49:15,.070562980
400,5.820451676186e-09,Amp DC,.00000001,5.5,F,F,F,F,F,F,Front,F,Main,199.4979248046875,Volt DC,100,T,2W,F,F,05/23/2022,17:49:15,.465450400
401,6.096385618548e-09,Amp DC,.00000001,5.5,F,F,F,F,F,F,Front,F,Main,199.9974365234375,Volt DC,100,T,2W,F,F,05/23/2022,17:49:15,.860315920
402,5.851101381182e-09,Amp DC,.00000001,5.5,F,F,F,F,F,F,Front,F,Main,200.4974060058594,Volt DC,100,T,2W,F,F,05/23/2022,17:49:16,.255172680
403,5.586894946674e-09,Amp DC,.00000001,5.5,F,F,F,F,F,F,Front,F,Main,200.9972686767578,Volt DC,100,T,2W,F,F,05/23/2022,17:49:16,.650051500
404,5.917594414484e-09,Amp DC,.00000001,5.5,F,F,F,F,F,F,Front,F,Main,201.4985809326172,Volt DC,100,T,2W,F,F,05/23/2022,17:49:17,.044911280
405,6.086226189694e-09,Amp DC,.00000001,5.5,F,F,F,F,F,F,Front,F,Main,201.9971771240234,Volt DC,100,T,2W,F,F,05/23/2022,17:49:17,.439760900
406,5.779384526505e-09,Amp DC,.00000001,5.5,F,F,F,F,F,F,Front,F,Main,202.4973144531250,Volt DC,100,T,2W,F,F,05/23/2022,17:49:17,.834629860
407,5.621593857086e-09,Amp DC,.00000001,5.5,F,F,F,F,F,F,Front,F,Main,202.9966125488281,Volt DC,100,T,2W,F,F,05/23/2022,17:49:18,.229503260
408,5.989027496156e-09,Amp DC,.00000001,5.5,F,F,F,F,F,F,Front,F,Main,203.4974975585938,Volt DC,100,T,2W,F,F,05/23/2022,17:49:18,.624364320
409,6.048486156374e-09,Amp DC,.00000001,5.5,F,F,F,F,F,F,Front,F,Main,203.9964141845703,Volt DC,100,T,2W,F,F,05/23/2022,17:49:19,.019211060
410,5.693781890415e-09,Amp DC,.00000001,5.5,F,F,F,F,F,F,Front,F,Main,204.4967651367188,Volt DC,100,T,2W,F,F,05/23/2022,17:49:19,.414071360
411,5.718396867138e-09,Amp DC,.00000001,5.5,F,F,F,F,F,F,Front,F,Main,204.9976348876953,Volt DC,100,T,2W,F,F,05/23/2022,17:49:19,.808940960
412,6.058298307465e-09,Amp DC,.00000001,5.5,F,F,F,F,F,F,Front,F,Main,205.4969024658203,Volt DC,100,T,2W,F,F,05/23/2022,17:49:20,.203802980
413,5.992874196892e-09,Amp DC,.00000001,5.5,F,F,F,F,F,F,Front,F,Main,205.9967041015625,Volt DC,100,T,2W,F,F,05/23/2022,17:49:20,.598682000
414,5.633022048812e-09,Amp DC,.00000001,5.5,F,F,F,F,F,F,Front,F,Main,206.4966430664063,Volt DC,100,T,2W,F,F,05/23/2022,17:49:20,.993555800
415,5.781652046011e-09,Amp DC,.00000001,5.5,F,F,F,F,F,F,Front,F,Main,206.9963073730469,Volt DC,100,T,2W,F,F,05/23/2022,17:49:21,.388418360
416,6.110510319957e-09,Amp DC,.00000001,5.5,F,F,F,F,F,F,Front,F,Main,207.4969329833984,Volt DC,100,T,2W,F,F,05/23/2022,17:49:21,.783299600
417,5.911500178257e-09,Amp DC,.00000001,5.5,F,F,F,F,F,F,Front,F,Main,207.9965057373047,Volt DC,100,T,2W,F,F,05/23/2022,17:49:22,.178151800
418,5.620649279336e-09,Amp DC,.00000001,5.5,F,F,F,F,F,F,Front,F,Main,208.4975738525391,Volt DC,100,T,2W,F,F,05/23/2022,17:49:22,.573006080
419,5.873871167239e-09,Amp DC,.00000001,5.5,F,F,F,F,F,F,Front,F,Main,208.9969787597656,Volt DC,100,T,2W,F,F,05/23/2022,17:49:22,.967868660
420,6.133878738268e-09,Amp DC,.00000001,5.5,F,F,F,F,F,F,Front,F,Main,209.4975280761719,Volt DC,100,T,2W,F,F,05/23/2022,17:49:23,.362733680
421,5.810777636839e-09,Amp DC,.00000001,5.5,F,F,F,F,F,F,Front,F,Main,209.9970245361328,Volt DC,100,T,2W,F,F,05/23/2022,17:49:23,.757607100
